{
  "botToken": "Token from the Discord dev portal",
  "botClient": "Client ID for the bot",
  "adminUsers": [
    "Client IDs",
    "for all users",
    "with admin permissions",
    "regardless of server"
  ],
  "botUser": {
    "name": "Username for the bot"
  },
  "cosmetics": {
    "palette": {
      "main": "#3770aa",
      "error": "#ab3740",
      "warn": "#ab7337"
    }
  }
}